{
  "IcoMoonType": "selection",
  "icons": [
    {
      "icon": {
        "paths": [
          "M464.384 555.008c-159.744 0-289.792-120.32-289.792-267.776s130.048-267.776 289.792-267.776c159.744 0 289.792 120.32 289.792 267.776s-130.048 267.776-289.792 267.776zM464.384 45.056c-145.92 0-264.192 108.544-264.192 242.176s118.272 242.176 264.192 242.176c145.92 0 264.192-108.544 264.192-242.176s-118.272-242.176-264.192-242.176z",
          "M900.608 1012.224h-871.936v-22.528c3.072-105.984 49.664-204.8 131.584-278.528s189.952-114.176 304.128-114.176c240.128 0 435.712 180.736 436.224 402.432l0 12.8zM54.272 986.624h820.224c-7.68-201.728-188.928-364.032-410.112-364.032-219.648 0-402.432 162.816-410.112 364.032z"
        ],
        "attrs": [],
        "width": 922,
        "isMulticolor": false,
        "isMulticolor2": false,
        "grid": 0,
        "tags": [
          "person"
        ]
      },
      "attrs": [],
      "properties": {
        "order": 61,
        "id": 0,
        "name": "person",
        "prevSize": 32,
        "code": 59671
      },
      "setIdx": 0,
      "setId": 13,
      "iconIdx": 0
    },
    {
      "icon": {
        "paths": [
          "M961.024 387.072l-68.608-12.544c-6.4-12.544-6.4-25.088-12.544-37.632l37.632-56.064 30.976-43.776-162.048-162.048-44.032 30.976-56.064 37.632c-12.544-6.144-25.088-6.144-37.632-12.544l-12.544-68.608-12.032-49.92h-224.512l-12.544 49.92-12.544 68.608c-12.544 6.4-25.088 6.4-37.632 12.544l-56.064-37.632-43.776-24.832-155.904 155.904 31.232 43.776 37.632 56.064c-12.544 12.544-12.544 24.832-18.944 37.632l-68.608 12.544-49.92 12.288v224.512l49.92 12.544 68.608 12.544c6.4 12.544 6.4 24.832 12.544 37.632l-37.632 56.064-30.976 44.032 162.048 162.048 43.776-30.976 56.064-37.632c12.544 6.144 24.832 6.144 37.632 12.544l12.544 68.608 12.544 49.92h224.512l12.544-49.92 12.544-68.608c12.544-6.4 25.088-6.4 37.632-12.544l56.064 37.632 44.032 30.976 162.048-162.048-30.976-44.032-37.632-56.064c6.144-12.544 12.544-25.088 12.544-37.632l68.608-12.544 49.92-12.544v-224.512l-50.432-12.288zM948.48 573.952l-105.984 18.944c-6.4 31.232-18.944 62.208-37.632 93.696l56.064 87.552-87.040 87.040-87.552-56.064c-31.488 18.688-62.464 31.232-93.696 37.632l-18.944 105.984h-124.672l-18.944-105.984c-30.976-6.4-62.464-18.944-93.44-37.632l-87.552 56.064-87.040-87.040 56.064-87.552c-18.944-31.488-31.488-62.464-37.632-93.696l-105.984-18.944v-124.672l105.984-18.944c6.144-30.976 18.688-62.464 37.632-93.44l-61.952-87.296 87.552-87.040 87.040 56.064c31.232-18.944 62.464-31.488 93.952-37.632l25.088-105.984h124.672l18.944 105.984c31.232 6.144 62.208 18.688 93.696 37.632l87.552-56.064 87.040 87.040-56.064 87.552c18.688 31.488 31.232 62.72 37.632 93.696l105.984 18.944v124.416c0 0-0.768 0-0.768-0.256zM511.488 293.376c-118.528 0-218.112 99.584-218.112 218.112 0 118.784 99.584 218.368 218.112 218.368 118.784 0 218.368-99.584 218.368-218.368 0.256-118.528-99.328-218.112-218.368-218.112zM511.488 667.648c-87.040 0-155.904-68.608-155.904-155.904 0-87.040 68.864-155.904 155.904-155.904 87.552 0 155.904 68.864 155.904 155.904 0.256 87.296-68.352 155.904-155.904 155.904z"
        ],
        "attrs": [
          {}
        ],
        "isMulticolor": false,
        "isMulticolor2": false,
        "tags": [
          "detail"
        ],
        "grid": 0
      },
      "attrs": [
        {}
      ],
      "properties": {
        "order": 2,
        "id": 0,
        "name": "detail",
        "prevSize": 32,
        "code": 59668
      },
      "setIdx": 1,
      "setId": 12,
      "iconIdx": 0
    },
    {
      "icon": {
        "paths": [
          "M933.888 12.8h-734.464v75.52h-73.728v922.88h734.464v-75.52h73.728v-922.88zM820.736 971.776h-655.616v-844.288h655.872v844.288h-0.256zM894.464 896.512h-34.304v-808.192h-621.312v-36.096h655.872v844.288l-0.256-0z",
          "M237.056 216.064h498.432v39.424h-498.432v-39.424z",
          "M237.056 347.136h380.416v39.424h-380.416v-39.424z",
          "M656.896 347.136h78.592v39.424h-78.592v-39.424z",
          "M237.056 465.408h209.92v39.424h-209.92v-39.424z",
          "M486.4 465.408h249.088v39.424h-249.088v-39.424z"
        ],
        "attrs": [
          {},
          {},
          {},
          {},
          {},
          {}
        ],
        "isMulticolor": false,
        "isMulticolor2": false,
        "tags": [
          "paper"
        ],
        "grid": 0
      },
      "attrs": [
        {},
        {},
        {},
        {},
        {},
        {}
      ],
      "properties": {
        "order": 3,
        "id": 1,
        "name": "paper",
        "prevSize": 32,
        "code": 59669
      },
      "setIdx": 1,
      "setId": 12,
      "iconIdx": 1
    },
    {
      "icon": {
        "paths": [
          "M776.448 829.696l-55.552-303.872 85.504-201.216-66.816-268.544-236.544 139.52-86.016 202.24-277.76 184.32 21.248 32.256 229.12-152.064-94.464 221.952 303.36 129.024 94.976-222.976 45.056 246.016 37.888-6.656zM578.304 762.624l-232.192-98.816 187.648-441.344 180.736-106.752 51.2 205.824-187.392 441.088z",
          "M334.595 754.18l35.571 15.13-77.253 181.625-35.571-15.13 77.253-181.625z",
          "M481.73 816.951l35.571 15.13-77.253 181.625-35.571-15.13 77.253-181.625z"
        ],
        "attrs": [
          {},
          {},
          {}
        ],
        "isMulticolor": false,
        "isMulticolor2": false,
        "tags": [
          "rocket"
        ],
        "grid": 0
      },
      "attrs": [
        {},
        {},
        {}
      ],
      "properties": {
        "order": 4,
        "id": 2,
        "name": "rocket",
        "prevSize": 32,
        "code": 59670
      },
      "setIdx": 1,
      "setId": 12,
      "iconIdx": 2
    },
    {
      "icon": {
        "paths": [
          "M518.4 12.8v90.88h376.32v816.64h-376.32v90.88h466.688v-998.4z",
          "M561.92 767.744l270.592-270.592-270.592-270.592-64 64.256 175.872 175.872h-634.88v90.624h604.928l-145.92 146.176z"
        ],
        "attrs": [
          {
            "fill": "rgb(255, 255, 255)"
          },
          {
            "fill": "rgb(255, 255, 255)"
          }
        ],
        "isMulticolor": false,
        "isMulticolor2": false,
        "colorPermutations": {
          "236909012552552551": [
            {
              "f": 1
            },
            {
              "f": 1
            }
          ]
        },
        "tags": [
          "authorisation"
        ],
        "grid": 0
      },
      "attrs": [
        {
          "fill": "rgb(255, 255, 255)"
        },
        {
          "fill": "rgb(255, 255, 255)"
        }
      ],
      "properties": {
        "order": 5,
        "id": 3,
        "name": "authorisation",
        "prevSize": 32,
        "code": 59662
      },
      "setIdx": 1,
      "setId": 12,
      "iconIdx": 3
    },
    {
      "icon": {
        "paths": [
          "M530.176 219.648c-77.568 0-140.544 62.976-140.544 140.544s62.976 140.544 140.544 140.544c77.312 0 140.544-62.976 140.544-140.544-0.256-77.568-63.232-140.544-140.544-140.544zM530.176 293.888c36.608 0 66.304 29.696 66.304 66.304s-29.696 66.304-66.304 66.304c-36.608 0-66.304-29.696-66.304-66.304s29.696-66.304 66.304-66.304zM774.912 115.456v0c-66.304-66.304-154.368-102.656-247.808-102.656s-181.504 36.352-247.808 102.656c-121.856 122.112-137.472 351.232-33.28 489.728l281.088 406.016 280.064-404.736c104.704-139.52 89.6-368.896-32.256-491.008zM527.104 880.896l-220.928-318.976c-83.968-112.128-72.192-296.448 25.6-393.984 52.224-52.224 121.6-80.896 195.328-80.896s143.104 28.672 195.328 80.896c97.792 97.792 109.568 282.112 25.344 394.496l-220.672 318.464z"
        ],
        "attrs": [
          {}
        ],
        "isMulticolor": false,
        "isMulticolor2": false,
        "colorPermutations": {
          "236909012552552551": [
            {}
          ]
        },
        "tags": [
          "location"
        ],
        "grid": 0
      },
      "attrs": [
        {}
      ],
      "properties": {
        "order": 6,
        "id": 4,
        "name": "location",
        "prevSize": 32,
        "code": 59663
      },
      "setIdx": 1,
      "setId": 12,
      "iconIdx": 4
    },
    {
      "icon": {
        "paths": [
          "M12.8 146.944v730.112h998.4v-730.112h-998.4zM900.352 213.76l-388.352 372.48-387.584-372.48h775.936zM74.496 251.392l271.104 260.608-271.104 260.096v-520.704zM123.648 810.496l266.496-255.744 121.856 116.992 121.856-116.992 265.728 255.488-775.936 0.256zM949.504 772.608l-271.104-260.352 271.104-260.096v520.448z"
        ],
        "attrs": [
          {
            "fill": "rgb(255, 255, 255)"
          }
        ],
        "isMulticolor": false,
        "isMulticolor2": false,
        "colorPermutations": {
          "236909012552552551": [
            {
              "f": 1
            }
          ]
        },
        "tags": [
          "mail"
        ],
        "grid": 0
      },
      "attrs": [
        {
          "fill": "rgb(255, 255, 255)"
        }
      ],
      "properties": {
        "order": 6,
        "id": 5,
        "name": "mail",
        "prevSize": 32,
        "code": 59664
      },
      "setIdx": 1,
      "setId": 12,
      "iconIdx": 5
    },
    {
      "icon": {
        "paths": [
          "M932.608 673.28c-150.272-120.832-210.176-60.416-267.776-1.536l-9.728 9.984c-2.56 1.024-19.2 0.768-56.064-23.040-35.328-23.040-79.872-61.44-132.608-114.176-150.272-150.272-136.96-188.416-137.216-188.416l9.984-9.984c58.624-57.856 119.296-117.504-1.536-267.776-40.96-50.688-81.92-76.288-125.44-78.080-62.72-3.328-109.568 45.568-148.224 86.528-5.376 5.632-10.496 11.008-15.872 16.384-45.824 46.080-47.36 138.24-4.352 252.928 44.8 118.784 133.12 247.552 248.064 362.752 115.2 115.2 243.968 203.264 362.752 248.064 54.272 20.48 105.472 31.232 147.968 31.232 45.312 0 81.664-12.288 105.216-35.584 5.376-5.376 11.264-11.008 18.176-17.408 38.912-37.12 87.552-83.2 84.992-146.432-2.048-43.52-27.648-84.48-78.336-125.44zM208.896 72.448c20.992 1.024 45.824 18.688 72.192 51.2 79.616 99.328 58.368 120.32 6.912 170.752l-10.24 10.24c-68.096 68.096 37.376 191.232 137.216 291.072 56.064 56.064 104.448 97.536 144.384 123.392 64.512 41.984 113.92 46.592 146.432 13.568l10.752-10.752c50.432-50.944 71.424-72.192 170.496 7.424 32.768 26.368 50.432 51.2 51.2 71.936 1.28 30.72-32.768 62.72-63.232 91.648-6.656 6.144-12.8 12.288-18.688 18.176-19.2 18.944-82.432 23.296-176.384-12.288-109.312-41.216-228.864-123.392-336.896-231.424s-190.208-227.84-231.424-337.152c-35.328-94.208-31.232-157.44-12.544-176.128 6.144-5.888 12.288-12.544 19.2-19.712 27.904-29.184 59.392-62.208 89.088-62.208z",
          "M629.248 361.984c3.84 8.96 10.752 15.872 19.456 19.456 4.352 1.792 9.216 2.816 14.080 2.816h238.592c19.968 0 36.352-16.128 36.352-36.096s-16.384-36.352-36.352-36.352h-150.784l249.856-249.856c6.912-6.912 10.752-15.872 10.752-25.6s-3.84-18.688-10.752-25.6c-13.568-13.568-37.632-13.568-51.2 0l-249.856 250.112v-151.040c0-19.968-16.384-36.096-36.352-36.096s-36.096 16.128-36.096 36.096l0.256 241.664c-0.256 1.792 0.256 5.888 2.048 10.496z"
        ],
        "attrs": [
          {},
          {}
        ],
        "isMulticolor": false,
        "isMulticolor2": false,
        "colorPermutations": {
          "236909012552552551": [
            {},
            {}
          ]
        },
        "tags": [
          "phone"
        ],
        "grid": 0
      },
      "attrs": [
        {},
        {}
      ],
      "properties": {
        "order": 7,
        "id": 6,
        "name": "phone",
        "prevSize": 32,
        "code": 59665
      },
      "setIdx": 1,
      "setId": 12,
      "iconIdx": 6
    },
    {
      "icon": {
        "paths": [
          "M670.976 614.144c52.48-64.768 83.968-147.2 83.968-236.8 0-208.128-169.472-377.344-377.6-377.344s-377.344 169.216-377.344 377.6 169.216 377.6 377.344 377.6c89.6 0 172.032-31.488 236.8-83.968l327.424 327.168 56.832-56.832-327.424-327.424zM377.344 674.56c-163.84 0-296.96-133.12-296.96-296.96s133.376-296.96 296.96-296.96c163.84 0 296.96 133.12 296.96 296.96s-133.12 296.96-296.96 296.96z"
        ],
        "attrs": [
          {
            "fill": "rgb(236, 90, 90)"
          }
        ],
        "isMulticolor": false,
        "isMulticolor2": false,
        "colorPermutations": {
          "236909012552552551": [
            {
              "f": 0
            }
          ]
        },
        "tags": [
          "search"
        ],
        "grid": 0
      },
      "attrs": [
        {
          "fill": "rgb(236, 90, 90)"
        }
      ],
      "properties": {
        "order": 2,
        "id": 7,
        "name": "search2",
        "prevSize": 32,
        "code": 59667
      },
      "setIdx": 1,
      "setId": 12,
      "iconIdx": 7
    },
    {
      "icon": {
        "paths": [
          "M1609.143 526.629c0 0 0-14.629 0 0 0-29.257 0-43.886-14.629-58.514 0 0 0 0 0-14.629l-438.857-424.229c-29.257-29.257-73.143-29.257-102.4 0s-29.257 73.143 0 102.4l307.2 307.2h-1287.314c-43.886 0-73.143 29.257-73.143 73.143s29.257 73.143 73.143 73.143h1287.314l-307.2 307.2c-29.257 29.257-29.257 73.143 0 102.4s73.143 29.257 102.4 0l438.857-424.229c14.629-14.629 14.629-14.629 14.629-29.257-14.629 0 0 0 0-14.629 0 0 0 0 0 0z"
        ],
        "width": 1609,
        "attrs": [],
        "isMulticolor": false,
        "isMulticolor2": false,
        "tags": [
          "arrow-long-l-09"
        ],
        "defaultCode": 59657,
        "grid": 0
      },
      "attrs": [],
      "properties": {
        "order": 56,
        "id": 8,
        "prevSize": 32,
        "code": 59658,
        "name": "arrow-long-right"
      },
      "setIdx": 1,
      "setId": 12,
      "iconIdx": 8
    },
    {
      "icon": {
        "paths": [
          "M409.937 374.511c99.532 0 178.82-79.288 178.82-178.82s-79.288-178.82-178.82-178.82c-99.532 0-178.82 79.288-178.82 178.82-0 97.845 79.288 178.82 178.82 178.82zM409.937 38.801c87.723 0 156.89 70.853 156.89 156.89s-70.853 156.89-156.89 156.89c-87.723 0-156.89-70.853-156.89-156.89s69.166-156.89 156.89-156.89zM366.076 263.17c-3.374-6.748-5.061-16.87-6.748-30.366h-26.992c0 18.557 3.374 32.053 8.435 42.175 10.122 18.557 32.053 30.366 62.418 32.053v30.366h15.183v-30.366c18.557-1.687 33.74-6.748 43.862-13.496 18.557-11.809 26.992-30.366 26.992-59.044 0-18.557-6.748-33.74-20.244-43.862-8.435-5.061-25.305-11.809-48.923-18.557v-74.227c13.496 0 25.305 6.748 32.053 16.87 0 5.061 1.687 11.809 3.374 20.244h26.992c0-16.87-6.748-32.053-16.87-42.175-11.809-10.122-26.992-16.87-47.236-18.557v-20.244h-15.183v20.244c-20.244 0-37.114 6.748-48.923 18.557-11.809 13.496-16.87 26.992-16.87 42.175 0 16.87 5.061 32.053 16.87 40.488 10.122 10.122 26.992 16.87 50.61 21.931v84.349c-20.244-0-32.053-6.748-38.801-18.557zM416.685 202.438c13.496 3.374 21.931 6.748 26.992 11.809 10.122 6.748 15.183 16.87 15.183 30.366 0 8.435-1.687 15.183-5.061 21.931-6.748 11.809-18.557 18.557-37.114 20.244v-84.349zM374.511 158.577c-6.748-6.748-10.122-13.496-10.122-23.618 0-8.435 3.374-16.87 8.435-23.618 5.061-8.435 15.183-11.809 28.679-11.809v72.54c-10.122-3.374-20.244-8.435-26.992-13.496zM543.209 463.921l-10.122 28.679c-75.914-26.992-160.264-25.305-236.178 1.687l-10.122-28.679c82.662-28.679 173.759-30.366 256.422-1.687zM948.086 754.082c21.931-23.618 25.305-60.731 21.931-114.715v-13.496l-13.496-1.687c-11.809 0-25.305 0-37.114 0-6.748 0-15.183 0-20.244 0-28.679-53.984-69.166-94.471-119.776-119.776 1.687-26.992 6.748-53.984 21.931-65.792l28.679-23.618-37.114-1.687c-53.984-3.374-97.845 30.366-123.15 55.671-55.671-48.923-151.829-77.601-256.422-77.601v0c-102.906 0-197.377 28.679-268.231 77.601l-13.496-10.122c-16.87-11.809-37.114-13.496-52.297-1.687-25.305 15.183-35.427 53.984-32.053 80.975 1.687 15.183 8.435 26.992 18.557 33.74-37.114 65.792-35.427 173.759 21.931 227.743 8.435 69.166 21.931 140.020 59.044 188.942l5.061 6.748h141.707l-1.687-16.87c-1.687-16.87-5.061-35.427-5.061-55.671 65.792 11.809 141.707 16.87 217.621 11.809 11.809 18.557 23.618 38.801 37.114 57.357l5.061 5.061h123.15l16.87-1.687-1.687-16.87c-3.374-25.305-6.748-52.297-1.687-77.601 35.427-10.122 172.072-48.923 264.857-146.768zM666.359 872.171l-8.435 1.687-1.687 8.435c-6.748 28.679-5.061 55.671-1.687 82.662h-91.097c-11.809-15.183-20.244-30.366-32.053-48.923l-8.435-15.183h-10.122c-82.662 6.748-167.012 1.687-236.178-13.496l-16.87-3.374-1.687 16.87c-1.687 23.618 0 43.862 1.687 62.418h-94.471c-30.366-43.862-42.175-109.654-50.61-173.759v-5.061l-5.061-3.374c-52.297-43.862-50.61-151.829-11.809-205.812l11.809-18.557-21.931-5.061c-8.435-1.687-11.809-8.435-13.496-18.557s0-23.618 5.061-32.053c-1.687 5.061-1.687 8.435 0 13.496 1.687 6.748 8.435 16.87 28.679 18.557h6.748l5.061-5.061c65.792-67.479 170.386-106.28 290.161-106.28v0c104.593 0 199.064 30.366 246.3 79.288l11.809 11.809 10.122-11.809c15.183-18.557 45.549-45.549 80.975-53.984-8.435 20.244-11.809 43.862-11.809 67.479v10.122l10.122 3.374c52.297 23.618 89.41 62.418 118.089 118.089l3.374 6.748 6.748 1.687c6.748 1.687 16.87 1.687 33.74 0 6.748 0 13.496 0 20.244 0 1.687 33.74 0 64.105-13.496 79.288-101.219 106.28-258.109 138.333-259.796 138.333zM803.005 617.437c0 13.496-11.809 25.305-25.305 25.305s-25.305-11.809-25.305-25.305c0-13.496 11.809-25.305 25.305-25.305s25.305 11.809 25.305 25.305z"
        ],
        "width": 995,
        "attrs": [],
        "isMulticolor": false,
        "isMulticolor2": false,
        "tags": [
          "adv1"
        ],
        "defaultCode": 59648,
        "grid": 0
      },
      "attrs": [],
      "properties": {
        "order": 57,
        "id": 9,
        "prevSize": 32,
        "code": 59659,
        "name": "pig"
      },
      "setIdx": 1,
      "setId": 12,
      "iconIdx": 9
    },
    {
      "icon": {
        "paths": [
          "M984.747 578.56c0-15.36-3.413-30.72-10.24-42.667 22.187-17.067 35.84-44.373 35.84-75.093 0-51.2-40.96-93.867-93.867-93.867h-252.587c22.187-56.32 34.133-124.587 34.133-194.56 0-44.373-35.84-81.92-80.213-81.92s-80.213 35.84-80.213 81.92c0 160.427-110.933 279.893-274.773 296.96-1.707 0-1.707 0-3.413 0-10.24-10.24-25.6-15.36-40.96-15.36h-121.173c-34.133 0-61.44 27.307-61.44 61.44v291.84c0 34.133 27.307 61.44 61.44 61.44h121.173c18.773 0 35.84-8.533 46.080-22.187 39.253 5.12 64.853 18.773 88.747 30.72 30.72 15.36 63.147 32.427 121.173 32.427h363.52c51.2 0 93.867-42.667 93.867-93.867 0-15.36-3.413-30.72-10.24-42.667 22.187-17.067 35.84-44.373 35.84-75.093 0-15.36-3.413-30.72-10.24-42.667 23.893-18.773 37.547-46.080 37.547-76.8v0zM921.6 634.88h-25.6c-8.533 0-15.36 6.827-15.36 15.36s6.827 15.36 15.36 15.36h22.187c5.12 10.24 8.533 20.48 8.533 32.427 0 23.893-11.947 44.373-32.427 56.32h-27.307c-8.533 0-15.36 6.827-15.36 15.36s6.827 15.36 15.36 15.36h25.6c5.12 10.24 8.533 20.48 8.533 32.427 0 35.84-27.307 63.147-63.147 63.147h-363.52c-49.493 0-76.8-13.653-107.52-29.013-23.893-11.947-49.493-25.6-88.747-32.427 0-3.413 1.707-6.827 1.707-10.24v-233.813c0-8.533-6.827-15.36-15.36-15.36s-15.36 6.827-15.36 15.36v232.107c0 17.067-13.653 30.72-30.72 30.72h-121.173c-17.067 0-30.72-13.653-30.72-30.72v-291.84c0-17.067 13.653-30.72 30.72-30.72h121.173c17.067 0 30.72 13.653 30.72 30.72 0 8.533 6.827 15.36 15.36 15.36s15.36-6.827 15.36-15.36c0-5.12 0-11.947-1.707-17.067 85.333-11.947 157.013-49.493 209.92-107.52s80.213-136.533 80.213-220.16c0-27.307 22.187-49.493 49.493-49.493s49.493 22.187 49.493 49.493c0 75.093-13.653 148.48-39.253 203.093-3.413 8.533 0 17.067 6.827 20.48 1.707 1.707 5.12 1.707 6.827 1.707 0 0 0 0 1.707 0h273.067c34.133 0 63.147 29.013 63.147 63.147 0 22.187-11.947 42.667-30.72 54.613h-29.013c-8.533 0-15.36 6.827-15.36 15.36s6.827 15.36 15.36 15.36h23.893c6.827 10.24 8.533 20.48 8.533 32.427 1.707 25.6-10.24 46.080-30.72 58.027v0zM921.6 634.88z"
        ],
        "attrs": [],
        "isMulticolor": false,
        "isMulticolor2": false,
        "tags": [
          "adv2"
        ],
        "defaultCode": 59649,
        "grid": 0
      },
      "attrs": [],
      "properties": {
        "order": 58,
        "id": 10,
        "prevSize": 32,
        "code": 59660,
        "name": "thumb-up"
      },
      "setIdx": 1,
      "setId": 12,
      "iconIdx": 10
    },
    {
      "icon": {
        "paths": [
          "M977.455 465.455h-418.909v-418.909c0-27.927-18.618-46.545-46.545-46.545s-46.545 18.618-46.545 46.545v418.909h-418.909c-27.927 0-46.545 18.618-46.545 46.545s18.618 46.545 46.545 46.545h418.909v418.909c0 27.927 18.618 46.545 46.545 46.545s46.545-18.618 46.545-46.545v-418.909h418.909c27.927 0 46.545-18.618 46.545-46.545s-18.618-46.545-46.545-46.545z"
        ],
        "attrs": [],
        "isMulticolor": false,
        "isMulticolor2": false,
        "tags": [
          "plus"
        ],
        "defaultCode": 59666,
        "grid": 0
      },
      "attrs": [],
      "properties": {
        "order": 55,
        "id": 11,
        "prevSize": 32,
        "code": 59666,
        "name": "plus"
      },
      "setIdx": 1,
      "setId": 12,
      "iconIdx": 11
    },
    {
      "icon": {
        "paths": [
          "M1023.936 768h-768.192v128l-255.744-192 255.744-192v128h768.192zM0 384h767.936v128l256-192-256-192v128h-767.936z"
        ],
        "width": 1022,
        "attrs": [
          {}
        ],
        "isMulticolor": false,
        "isMulticolor2": false,
        "tags": [
          "transfer",
          "arrows"
        ],
        "grid": 32
      },
      "attrs": [
        {}
      ],
      "properties": {
        "order": 10,
        "id": 0,
        "name": "transfer, arrows",
        "prevSize": 32,
        "code": 59656
      },
      "setIdx": 2,
      "setId": 11,
      "iconIdx": 0
    },
    {
      "icon": {
        "paths": [
          "M398.878 170.667c124.75 0 226.251 102.084 226.251 227.556 0 47.25-14.5 92.736-41.945 131.527l-22.277 31.46-31.278 22.375c-38.555 27.611-83.778 42.194-130.75 42.194-124.779 0-226.251-102.084-226.251-227.556s101.474-227.556 226.251-227.556zM398.878 56.889c-187.444 0-339.388 152.82-339.388 341.333s151.945 341.333 339.388 341.333c73.25 0 140.889-23.57 196.334-63.264l272.555 274.124c11.083 11.14 25.584 16.695 40.084 16.695s28.999-5.556 40.055-16.695c22.139-22.254 22.139-58.332 0-80.583l-272.555-274.124c39.472-55.778 62.889-123.819 62.889-197.486 0-188.514-151.945-341.333-339.362-341.333v0z"
        ],
        "attrs": [
          {}
        ],
        "isMulticolor": false,
        "isMulticolor2": false,
        "tags": [
          "search"
        ],
        "grid": 32
      },
      "attrs": [
        {}
      ],
      "properties": {
        "order": 1,
        "id": 1,
        "prevSize": 32,
        "code": 59648,
        "name": "search"
      },
      "setIdx": 2,
      "setId": 11,
      "iconIdx": 1
    },
    {
      "icon": {
        "paths": [
          "M716.8 512l-307.2-256v153.6h-358.4v204.8h358.4v153.6l307.2-256zM870.4 870.4h-409.6v102.4h409.6c56.32 0 102.4-46.080 102.4-102.4v-716.8c0-56.32-46.080-102.4-102.4-102.4h-409.6v102.4h409.6v716.8z"
        ],
        "attrs": [
          {}
        ],
        "isMulticolor": false,
        "isMulticolor2": false,
        "tags": [
          "login"
        ],
        "grid": 32
      },
      "attrs": [
        {}
      ],
      "properties": {
        "order": 5,
        "id": 2,
        "prevSize": 32,
        "code": 59649,
        "name": "login"
      },
      "setIdx": 2,
      "setId": 11,
      "iconIdx": 2
    },
    {
      "icon": {
        "paths": [
          "M170.080 296.765l247.52 215.235-247.581 215.287v0c-6.206-5.878-10.019-14.235-10.019-23.507v-383.562c0-9.253 3.874-17.582 10.080-23.454zM885.981 296.713c6.206 5.878 10.019 14.235 10.019 23.507v383.562c0 9.252-3.874 17.582-10.080 23.454l-247.52-215.235 247.581-215.287zM614.459 532.819l233.541 203.181h-640l233.541-203.181 86.459 75.181 86.459-75.181zM192.115 256c-35.41 0-64.115 28.624-64.115 63.81v384.38c0 35.241 28.472 63.81 64.115 63.81h671.77c35.41 0 64.115-28.624 64.115-63.81v-384.38c0-35.241-28.472-63.81-64.115-63.81h-671.77zM528 566.4l-320-278.4h640l-320 278.4z"
        ],
        "attrs": [],
        "isMulticolor": false,
        "isMulticolor2": false,
        "tags": [
          "mail-envelope-closed"
        ],
        "grid": 32
      },
      "attrs": [],
      "properties": {
        "id": 3,
        "order": 54,
        "prevSize": 32,
        "code": 59650,
        "name": "mail2"
      },
      "setIdx": 2,
      "setId": 11,
      "iconIdx": 3
    },
    {
      "icon": {
        "paths": [
          "M515.554 224.043c-71.808 0-130.695 58.887-130.695 130.695s58.887 130.695 130.695 130.695c71.808 0 130.695-58.887 130.695-130.695s-58.887-130.695-130.695-130.695v0zM515.554 448.086c-51.701 0-93.348-41.647-93.348-93.348s41.647-93.348 93.348-93.348c51.701 0 93.348 41.647 93.348 93.348s-41.647 93.348-93.348 93.348v0zM515.554 448.086",
          "M765.457 104.835c-67.507-67.507-157.989-104.835-254.203-104.835s-186.716 37.347-254.203 104.835c-124.942 124.942-140.749 361.925-33.027 504.107l287.25 415.059 287.25-415.059c109.155-142.182 93.348-379.165-33.027-504.107v0zM768.344 587.401l-257.090 370.545-257.090-371.978c-97.668-129.262-83.295-343.251 30.16-456.706 60.321-60.321 142.182-94.781 226.929-94.781 86.181 0 166.609 33.027 226.929 94.781 114.888 114.888 127.828 328.898 30.16 458.159v0zM768.344 587.401"
        ],
        "attrs": [
          {},
          {}
        ],
        "isMulticolor": false,
        "isMulticolor2": false,
        "tags": [
          "Marker"
        ],
        "grid": 32
      },
      "attrs": [
        {},
        {}
      ],
      "properties": {
        "order": 53,
        "id": 4,
        "prevSize": 32,
        "code": 59651,
        "name": "marker"
      },
      "setIdx": 2,
      "setId": 11,
      "iconIdx": 4
    },
    {
      "icon": {
        "paths": [
          "M811.196 1017.671c-42.113 0-92.722-8.433-147.49-29.521-122.185-46.392-252.867-134.898-370.835-252.867s-210.691-248.587-252.867-370.835c-42.113-109.593-42.113-202.258 0-244.371 4.217-4.217 12.592-12.592 16.871-21.088 37.896-37.896 80.072-84.289 139.057-84.289 37.896 0 75.856 25.305 113.81 75.856 113.81 143.273 63.201 193.882 4.217 252.867l-8.433 12.592c-8.433 8.433-29.521 54.768 143.273 227.562 54.768 54.768 105.377 96.881 143.273 122.185 25.305 16.871 67.418 37.896 84.289 21.088l12.592-12.592c58.984-58.984 109.593-109.593 252.867 4.217 46.392 37.896 71.634 75.856 75.856 113.81 4.217 54.768-42.113 101.097-84.289 139.057-8.433 4.217-12.592 12.592-16.871 16.871-29.521 21.088-63.201 29.521-105.377 29.521v0zM187.499 48.443c-42.113 0-75.856 37.896-109.593 71.634-8.433 8.433-12.592 12.592-16.871 21.088-29.521 29.521-29.521 113.81 8.433 206.474 42.113 117.969 130.619 244.371 248.587 358.181 113.81 113.81 244.371 202.258 358.181 248.587 96.881 37.896 177.011 37.896 206.474 8.433 4.217-4.217 12.592-12.592 21.088-16.871 33.68-33.68 75.856-71.634 71.634-109.593 0-29.521-21.088-58.984-63.201-92.722-117.969-96.881-151.707-63.201-206.474-4.217l-12.592 12.592c-25.305 25.305-67.418 21.088-126.402-16.871-42.113-25.305-88.506-67.418-147.49-126.402-143.273-143.273-189.603-231.779-143.273-273.892l12.592-12.592c54.768-54.768 88.506-88.506-4.217-206.474-33.68-46.392-63.201-67.418-96.881-67.418 4.217 0 4.217 0 0 0v0zM187.499 48.443",
          "M1005.079 18.921c-8.433-8.433-16.871-8.433-25.305 0l-299.196 299.196v-210.691c0-8.433-8.433-16.871-16.871-16.871s-16.871 8.433-16.871 16.871v248.587c0 0 0 0 0 0s0 4.217 0 4.217 4.217 8.433 8.433 8.433c0 0 4.217 0 8.433 0h248.587c8.433 0 16.871-8.433 16.871-16.871s-8.433-16.871-16.871-16.871h-210.691l299.196-299.196c8.433 0 8.433-8.433 4.217-16.871z"
        ],
        "attrs": [
          {},
          {}
        ],
        "isMulticolor": false,
        "isMulticolor2": false,
        "tags": [
          "Call"
        ],
        "grid": 32
      },
      "attrs": [
        {},
        {}
      ],
      "properties": {
        "order": 8,
        "id": 5,
        "name": "call",
        "prevSize": 32,
        "code": 59652
      },
      "setIdx": 2,
      "setId": 11,
      "iconIdx": 5
    },
    {
      "icon": {
        "paths": [
          "M768 298.667h-512c-47.104 0-85.333 38.229-85.333 85.333s38.229 85.333 85.333 85.333h512c47.104 0 85.333-38.229 85.333-85.333s-38.229-85.333-85.333-85.333z",
          "M768 597.333h-512c-47.104 0-85.333 38.229-85.333 85.333s38.229 85.333 85.333 85.333h512c47.104 0 85.333-38.229 85.333-85.333s-38.229-85.333-85.333-85.333z"
        ],
        "attrs": [
          {},
          {}
        ],
        "isMulticolor": false,
        "isMulticolor2": false,
        "tags": [
          "equals"
        ],
        "grid": 24
      },
      "attrs": [
        {},
        {}
      ],
      "properties": {
        "order": 1,
        "id": 0,
        "name": "equals",
        "prevSize": 24,
        "code": 59654
      },
      "setIdx": 3,
      "setId": 10,
      "iconIdx": 0
    },
    {
      "icon": {
        "paths": [
          "M810.667 170.667q18.333 0 30.5 12.167t12.167 30.5q0 18-12.333 30.333l-268.667 268.333 268.667 268.333q12.333 12.333 12.333 30.333 0 18.333-12.167 30.5t-30.5 12.167q-18 0-30.333-12.333l-268.333-268.667-268.333 268.667q-12.333 12.333-30.333 12.333-18.333 0-30.5-12.167t-12.167-30.5q0-18 12.333-30.333l268.667-268.333-268.667-268.333q-12.333-12.333-12.333-30.333 0-18.333 12.167-30.5t30.5-12.167q18 0 30.333 12.333l268.333 268.667 268.333-268.667q12.333-12.333 30.333-12.333z"
        ],
        "attrs": [
          {}
        ],
        "isMulticolor": false,
        "isMulticolor2": false,
        "tags": [
          "cross"
        ],
        "grid": 24
      },
      "attrs": [
        {}
      ],
      "properties": {
        "order": 52,
        "id": 1,
        "name": "cross",
        "prevSize": 24,
        "code": 59655
      },
      "setIdx": 3,
      "setId": 10,
      "iconIdx": 1
    },
    {
      "icon": {
        "paths": [
          "M426.667 42.667q78 0 149.167 30.5t122.5 81.833 81.833 122.5 30.5 149.167q0 67-21.833 128.333t-62.167 111.333l242.333 242q12.333 12.333 12.333 30.333 0 18.333-12.167 30.5t-30.5 12.167q-18 0-30.333-12.333l-242-242.333q-50 40.333-111.333 62.167t-128.333 21.833q-78 0-149.167-30.5t-122.5-81.833-81.833-122.5-30.5-149.167 30.5-149.167 81.833-122.5 122.5-81.833 149.167-30.5zM426.667 128q-60.667 0-116 23.667t-95.333 63.667-63.667 95.333-23.667 116 23.667 116 63.667 95.333 95.333 63.667 116 23.667 116-23.667 95.333-63.667 63.667-95.333 23.667-116-23.667-116-63.667-95.333-95.333-63.667-116-23.667zM426.667 256q17.667 0 30.167 12.5t12.5 30.167v85.333h85.333q17.667 0 30.167 12.5t12.5 30.167-12.5 30.167-30.167 12.5h-85.333v85.333q0 17.667-12.5 30.167t-30.167 12.5-30.167-12.5-12.5-30.167v-85.333h-85.333q-17.667 0-30.167-12.5t-12.5-30.167 12.5-30.167 30.167-12.5h85.333v-85.333q0-17.667 12.5-30.167t30.167-12.5z"
        ],
        "attrs": [
          {}
        ],
        "isMulticolor": false,
        "isMulticolor2": false,
        "tags": [
          "zoom-in"
        ],
        "grid": 24
      },
      "attrs": [
        {}
      ],
      "properties": {
        "order": 1,
        "id": 2,
        "name": "zoom-in",
        "prevSize": 24,
        "code": 59653
      },
      "setIdx": 3,
      "setId": 10,
      "iconIdx": 2
    },
    {
      "icon": {
        "paths": [
          "M0 384l383.75 383.75 383.75-383.75h-767.5z"
        ],
        "width": 767,
        "attrs": [
          {}
        ],
        "isMulticolor": false,
        "isMulticolor2": false,
        "tags": [
          "triangle-down"
        ],
        "grid": 16
      },
      "attrs": [
        {}
      ],
      "properties": {
        "order": 1,
        "id": 0,
        "name": "triangle-down",
        "prevSize": 32,
        "code": 59657
      },
      "setIdx": 4,
      "setId": 9,
      "iconIdx": 0
    },
    {
      "icon": {
        "paths": [
          "M864 0c88.364 0 160 71.634 160 160 0 36.020-11.91 69.258-32 96l-64 64-224-224 64-64c26.742-20.090 59.978-32 96-32zM64 736l-64 288 288-64 592-592-224-224-592 592zM715.578 363.578l-448 448-55.156-55.156 448-448 55.156 55.156z"
        ],
        "attrs": [],
        "isMulticolor": false,
        "isMulticolor2": false,
        "tags": [
          "pencil",
          "write",
          "edit"
        ],
        "defaultCode": 59653,
        "grid": 16
      },
      "attrs": [],
      "properties": {
        "ligatures": "pencil, write",
        "name": "pencil",
        "order": 60,
        "id": 1,
        "prevSize": 32,
        "code": 59661
      },
      "setIdx": 4,
      "setId": 9,
      "iconIdx": 1
    },
    {
      "icon": {
        "paths": [
          "M864 128l-480 480-224-224-160 160 384 384 640-640z"
        ],
        "attrs": [],
        "isMulticolor": false,
        "isMulticolor2": false,
        "tags": [
          "checkmark",
          "tick",
          "correct",
          "accept",
          "ok"
        ],
        "defaultCode": 59920,
        "grid": 16
      },
      "attrs": [],
      "properties": {
        "ligatures": "checkmark, tick",
        "name": "checkmark",
        "order": 59,
        "id": 2,
        "prevSize": 32,
        "code": 59920
      },
      "setIdx": 4,
      "setId": 9,
      "iconIdx": 2
    }
  ],
  "height": 1024,
  "metadata": {
    "name": "icomoon"
  },
  "preferences": {
    "showGlyphs": true,
    "showQuickUse": true,
    "showQuickUse2": true,
    "showSVGs": true,
    "fontPref": {
      "prefix": "icon-",
      "metadata": {
        "fontFamily": "icomoon"
      },
      "metrics": {
        "emSize": 1024,
        "baseline": 6.25,
        "whitespace": 50
      },
      "embed": false
    },
    "imagePref": {
      "prefix": "icon-",
      "png": true,
      "useClassSelector": true,
      "color": 0,
      "bgColor": 16777215,
      "classSelector": ".icon"
    },
    "historySize": 100,
    "showCodes": true,
    "gridSize": 16
  }
}